gray_counter.vcd
$date
	Wed Jun 23 05:21:53 2021
$end
$version
	Icarus Verilog
$end
$timescale
	100ps
$end
$scope module BUF $end
$var wire 1 ! A $end
$var wire 1 " Y $end
$upscope $end
$scope module DFFSR $end
$var wire 1 # C $end
$var wire 1 $ D $end
$var wire 1 % R $end
$var wire 1 & S $end
$var reg 1 ' Q $end
$upscope $end
$scope module bancopruebas_gray $end
$var wire 5 ( salida_gray_conductual [4:0] $end
$var wire 5 ) salida_gray [4:0] $end
$var wire 1 * reset_L $end
$var wire 1 + enable $end
$var wire 1 , clk $end
$scope module contador_conductual $end
$var wire 1 * reset_L $end
$var wire 1 + enable $end
$var wire 1 , clk $end
$var reg 5 - counter [4:0] $end
$var reg 5 . salida_gray_conductual [4:0] $end
$var reg 5 / salida_shift [4:0] $end
$upscope $end
$scope module contador_estructural $end
$var wire 2 0 xor_output_cnt [1:0] $end
$var wire 5 1 salida_gray [4:0] $end
$var wire 1 * reset_L $end
$var wire 1 + enable $end
$var wire 5 2 count [4:0] $end
$var wire 1 , clk $end
$var wire 1 3 _046_ $end
$var wire 1 4 _045_ $end
$var wire 1 5 _044_ $end
$var wire 1 6 _043_ $end
$var wire 1 7 _042_ $end
$var wire 1 8 _041_ $end
$var wire 1 9 _040_ $end
$var wire 1 : _039_ $end
$var wire 1 ; _038_ $end
$var wire 1 < _037_ $end
$var wire 1 = _036_ $end
$var wire 1 > _035_ $end
$var wire 1 ? _034_ $end
$var wire 1 @ _033_ $end
$var wire 1 A _032_ $end
$var wire 1 B _031_ $end
$var wire 1 C _030_ $end
$var wire 1 D _029_ $end
$var wire 1 E _028_ $end
$var wire 1 F _027_ $end
$var wire 1 G _026_ $end
$var wire 1 H _025_ $end
$var wire 1 I _024_ $end
$var wire 1 J _023_ $end
$var wire 1 K _022_ $end
$var wire 1 L _021_ $end
$var wire 1 M _020_ $end
$var wire 1 N _019_ $end
$var wire 1 O _018_ $end
$var wire 1 P _017_ $end
$var wire 1 Q _016_ $end
$var wire 1 R _015_ $end
$var wire 1 S _014_ $end
$var wire 1 T _013_ $end
$var wire 1 U _012_ $end
$var wire 1 V _011_ $end
$var wire 1 W _010_ $end
$var wire 1 X _009_ $end
$var wire 1 Y _008_ $end
$var wire 1 Z _007_ $end
$var wire 1 [ _006_ $end
$var wire 1 \ _005_ $end
$var wire 1 ] _004_ $end
$var wire 1 ^ _003_ $end
$var wire 1 _ _002_ $end
$var wire 2 ` _001_ [1:0] $end
$var wire 5 a _000_ [4:0] $end
$scope module _047_ $end
$var wire 1 b A $end
$var wire 1 _ Y $end
$upscope $end
$scope module _048_ $end
$var wire 1 c A $end
$var wire 1 ^ Y $end
$upscope $end
$scope module _049_ $end
$var wire 1 d A $end
$var wire 1 ] Y $end
$upscope $end
$scope module _050_ $end
$var wire 1 e A $end
$var wire 1 \ Y $end
$upscope $end
$scope module _051_ $end
$var wire 1 f A $end
$var wire 1 [ Y $end
$upscope $end
$scope module _052_ $end
$var wire 1 g B $end
$var wire 1 Z Y $end
$var wire 1 + A $end
$upscope $end
$scope module _053_ $end
$var wire 1 Z A $end
$var wire 1 Y Y $end
$upscope $end
$scope module _054_ $end
$var wire 1 \ A $end
$var wire 1 [ B $end
$var wire 1 X Y $end
$upscope $end
$scope module _055_ $end
$var wire 1 h A $end
$var wire 1 i B $end
$var wire 1 W Y $end
$upscope $end
$scope module _056_ $end
$var wire 1 Y A $end
$var wire 1 X B $end
$var wire 1 V Y $end
$upscope $end
$scope module _057_ $end
$var wire 1 j A $end
$var wire 1 k B $end
$var wire 1 U Y $end
$upscope $end
$scope module _058_ $end
$var wire 1 U A $end
$var wire 1 T Y $end
$upscope $end
$scope module _059_ $end
$var wire 1 l A $end
$var wire 1 m B $end
$var wire 1 S Y $end
$upscope $end
$scope module _060_ $end
$var wire 1 \ A $end
$var wire 1 Z B $end
$var wire 1 R Y $end
$upscope $end
$scope module _061_ $end
$var wire 1 n A $end
$var wire 1 o B $end
$var wire 1 Q Y $end
$upscope $end
$scope module _062_ $end
$var wire 1 Q A $end
$var wire 1 P Y $end
$upscope $end
$scope module _063_ $end
$var wire 1 _ A $end
$var wire 1 V B $end
$var wire 1 O Y $end
$upscope $end
$scope module _064_ $end
$var wire 1 V A $end
$var wire 1 U B $end
$var wire 1 N Y $end
$upscope $end
$scope module _065_ $end
$var wire 1 p A $end
$var wire 1 O B $end
$var wire 1 M Y $end
$upscope $end
$scope module _066_ $end
$var wire 1 ^ A $end
$var wire 1 M B $end
$var wire 1 L Y $end
$upscope $end
$scope module _067_ $end
$var wire 1 q A $end
$var wire 1 N B $end
$var wire 1 K Y $end
$upscope $end
$scope module _068_ $end
$var wire 1 ^ A $end
$var wire 1 M B $end
$var wire 1 J Y $end
$upscope $end
$scope module _069_ $end
$var wire 1 J B $end
$var wire 1 I Y $end
$var wire 1 * A $end
$upscope $end
$scope module _070_ $end
$var wire 1 L A $end
$var wire 1 I B $end
$var wire 1 r Y $end
$upscope $end
$scope module _071_ $end
$var wire 1 ] A $end
$var wire 1 K B $end
$var wire 1 H Y $end
$upscope $end
$scope module _072_ $end
$var wire 1 ] A $end
$var wire 1 K B $end
$var wire 1 G Y $end
$upscope $end
$scope module _073_ $end
$var wire 1 G B $end
$var wire 1 F Y $end
$var wire 1 * A $end
$upscope $end
$scope module _074_ $end
$var wire 1 H A $end
$var wire 1 F B $end
$var wire 1 s Y $end
$upscope $end
$scope module _075_ $end
$var wire 1 t B $end
$var wire 1 E Y $end
$var wire 1 + A $end
$upscope $end
$scope module _076_ $end
$var wire 1 Z B $end
$var wire 1 D Y $end
$var wire 1 * A $end
$upscope $end
$scope module _077_ $end
$var wire 1 E A $end
$var wire 1 D B $end
$var wire 1 u Y $end
$upscope $end
$scope module _078_ $end
$var wire 1 \ A $end
$var wire 1 Z B $end
$var wire 1 C Y $end
$upscope $end
$scope module _079_ $end
$var wire 1 C B $end
$var wire 1 B Y $end
$var wire 1 * A $end
$upscope $end
$scope module _080_ $end
$var wire 1 R A $end
$var wire 1 B B $end
$var wire 1 v Y $end
$upscope $end
$scope module _081_ $end
$var wire 1 w A $end
$var wire 1 R B $end
$var wire 1 A Y $end
$upscope $end
$scope module _082_ $end
$var wire 1 V B $end
$var wire 1 @ Y $end
$var wire 1 * A $end
$upscope $end
$scope module _083_ $end
$var wire 1 A A $end
$var wire 1 @ B $end
$var wire 1 x Y $end
$upscope $end
$scope module _084_ $end
$var wire 1 _ A $end
$var wire 1 V B $end
$var wire 1 ? Y $end
$upscope $end
$scope module _085_ $end
$var wire 1 ? B $end
$var wire 1 > Y $end
$var wire 1 * A $end
$upscope $end
$scope module _086_ $end
$var wire 1 O A $end
$var wire 1 > B $end
$var wire 1 y Y $end
$upscope $end
$scope module _087_ $end
$var wire 1 z A $end
$var wire 1 O B $end
$var wire 1 = Y $end
$upscope $end
$scope module _088_ $end
$var wire 1 M B $end
$var wire 1 < Y $end
$var wire 1 * A $end
$upscope $end
$scope module _089_ $end
$var wire 1 = A $end
$var wire 1 < B $end
$var wire 1 { Y $end
$upscope $end
$scope module _090_ $end
$var wire 1 | A $end
$var wire 1 } B $end
$var wire 1 ; Y $end
$upscope $end
$scope module _091_ $end
$var wire 1 ~ A $end
$var wire 1 !" B $end
$var wire 1 : Y $end
$upscope $end
$scope module _092_ $end
$var wire 1 ^ A $end
$var wire 1 "" B $end
$var wire 1 9 Y $end
$upscope $end
$scope module _093_ $end
$var wire 1 W A $end
$var wire 1 9 B $end
$var wire 1 8 Y $end
$upscope $end
$scope module _094_ $end
$var wire 1 : A $end
$var wire 1 8 B $end
$var wire 1 7 Y $end
$upscope $end
$scope module _095_ $end
$var wire 1 7 A $end
$var wire 1 6 Y $end
$upscope $end
$scope module _096_ $end
$var wire 1 S A $end
$var wire 1 6 B $end
$var wire 1 5 Y $end
$upscope $end
$scope module _097_ $end
$var wire 1 ; A $end
$var wire 1 5 B $end
$var wire 1 #" Y $end
$upscope $end
$scope module _098_ $end
$var wire 1 $" A $end
$var wire 1 %" B $end
$var wire 1 4 Y $end
$upscope $end
$scope module _099_ $end
$var wire 1 X A $end
$var wire 1 4 B $end
$var wire 1 &" Y $end
$upscope $end
$scope module _100_ $end
$var wire 1 '" A $end
$var wire 1 (" B $end
$var wire 1 3 Y $end
$upscope $end
$scope module _101_ $end
$var wire 1 P A $end
$var wire 1 3 B $end
$var wire 1 )" Y $end
$upscope $end
$scope module _102_ $end
$var wire 1 T A $end
$var wire 1 : B $end
$var wire 1 *" Y $end
$upscope $end
$scope module _103_ $end
$var wire 1 +" D $end
$var wire 1 , C $end
$var reg 1 ," Q $end
$upscope $end
$scope module _104_ $end
$var wire 1 -" D $end
$var wire 1 , C $end
$var reg 1 ." Q $end
$upscope $end
$scope module _105_ $end
$var wire 1 /" D $end
$var wire 1 , C $end
$var reg 1 0" Q $end
$upscope $end
$scope module _106_ $end
$var wire 1 1" D $end
$var wire 1 , C $end
$var reg 1 2" Q $end
$upscope $end
$scope module _107_ $end
$var wire 1 3" D $end
$var wire 1 , C $end
$var reg 1 4" Q $end
$upscope $end
$scope module _108_ $end
$var wire 1 5" D $end
$var wire 1 , C $end
$var reg 1 6" Q $end
$upscope $end
$scope module _109_ $end
$var wire 1 7" D $end
$var wire 1 , C $end
$var reg 1 8" Q $end
$upscope $end
$upscope $end
$scope module probador $end
$var wire 5 9" salida_gray [4:0] $end
$var wire 5 :" salida_gray_conductual [4:0] $end
$var reg 1 , clk $end
$var reg 1 + enable $end
$var reg 1 * reset_L $end
$var reg 1 ;" verificador $end
$upscope $end
$upscope $end
$enddefinitions $end
#0
$dumpvars
x;"
bx :"
bx 9"
x8"
07"
x6"
05"
x4"
03"
x2"
01"
x0"
0/"
x."
0-"
x,"
0+"
x*"
x)"
x("
x'"
x&"
x%"
x$"
x#"
x""
x!"
x~
x}
x|
0{
xz
0y
0x
xw
0v
0u
xt
0s
0r
xq
xp
xo
xn
xm
xl
xk
xj
xi
xh
xg
xf
xe
xd
xc
xb
b0 a
b0 `
x_
x^
x]
x\
x[
1Z
0Y
xX
xW
1V
xU
xT
xS
0R
xQ
xP
0O
0N
1M
0L
1K
xJ
1I
0H
xG
1F
xE
1D
xC
1B
xA
1@
x?
1>
x=
1<
x;
x:
x9
x8
x7
x6
x5
x4
x3
bx 2
bx 1
bx 0
bx /
bx .
b0 -
0,
0+
0*
bx )
bx (
x'
z&
z%
z$
z#
z"
z!
$end
#10
06
17
0C
0#"
05
0&"
0)"
0*"
08
1V
03"
01"
0/"
0-"
1+"
07"
05"
0X
0P
0?
0T
0J
0G
0{
0y
0x
0v
b1 a
1u
0s
b0 `
0r
1;
1S
14
1A
1W
13
1Q
1:
1=
1U
19
0Y
1\
1[
1_
0;"
1^
1]
0E
1Z
0<
1>
0@
1B
0D
1F
1I
0|
0t
0l
0g
0$"
0}
0m
0h
0e
0("
0%"
0w
0o
0i
0f
0'"
0~
0n
0j
0b
b0 )
b0 1
b0 9"
0!"
0z
0p
0k
0q
0c
0""
0d
0,"
0."
00"
02"
b0 2
04"
06"
b0 0
08"
1+
1*
1,
#20
0,
#30
1-"
1v
0+"
b10 a
0u
0B
1;"
b1 )
b1 1
b1 9"
1#"
1D
1C
1Y
0;
0Z
1|
1t
1l
1g
b1 2
1,"
b1 (
b1 .
b1 :"
b0 /
b1 -
1,
#40
0,
#50
0/"
1+"
0x
1u
1-"
b11 a
1v
1A
0D
b11 )
b11 1
b11 9"
1&"
0Y
0R
1Z
04
0\
0|
0t
0l
0g
1$"
1}
1m
1h
1e
0,"
b10 2
1."
1;"
b11 (
b11 .
b11 :"
b1 /
b10 -
1,
#60
0,
#70
1/"
1x
0-"
0+"
b10 )
b10 1
b10 9"
0#"
0v
0A
b100 a
0u
15
1R
1D
1Y
0S
0Z
1|
1t
1l
1g
b11 2
1,"
1;"
b10 (
b10 .
b10 :"
b11 -
1,
#80
0,
#90
1+"
1u
1B
0-"
b101 a
0v
0D
0C
05
b110 )
b110 1
b110 9"
1)"
0Y
0R
1Z
1;
1S
03
1\
0[
0|
0t
0l
0g
0$"
0}
0m
0h
0e
1("
1%"
1w
1o
1i
1f
0,"
0."
b100 2
10"
1;"
b110 (
b110 .
b110 :"
b10 /
b100 -
1,
#100
0,
#110
1-"
1v
0+"
b110 a
0u
0B
b111 )
b111 1
b111 9"
1#"
1D
1C
1Y
0;
0Z
1|
1t
1l
1g
b101 2
1,"
1;"
b111 (
b111 .
b111 :"
b101 -
1,
#120
0,
#130
1+"
1u
1-"
b101 )
b101 1
b101 9"
0&"
b111 a
1v
0D
0Y
1X
0R
1Z
0W
0\
0|
0t
0l
0g
1$"
1}
1m
1h
1e
0,"
b110 2
1."
1;"
b101 (
b101 .
b101 :"
b11 /
b110 -
1,
#140
0,
#150
11"
1y
0/"
0x
0>
1@
1?
0-"
0+"
b100 )
b100 1
b100 9"
0#"
0v
b1000 a
0u
0V
15
1R
1D
1Y
0S
0Z
1|
1t
1l
1g
b111 2
1,"
1;"
b100 (
b100 .
b100 :"
b111 -
1,
#160
0,
#170
03"
1+"
0@
0{
1u
1B
0-"
11"
0v
1A
1V
b1001 a
1y
1=
0D
0C
05
b1100 )
b1100 1
b1100 9"
1*"
0Y
0R
0X
0O
1Z
1;
1S
14
1W
0:
1\
1[
0_
0|
0t
0l
0g
0$"
0}
0m
0h
0e
0("
0%"
0w
0o
0i
0f
1'"
1~
1n
1j
1b
0,"
0."
00"
b1000 2
12"
1;"
b1100 (
b1100 .
b1100 :"
b100 /
b1000 -
1,
#180
0,
#190
1-"
1v
0+"
b1010 a
0u
0B
b1101 )
b1101 1
b1101 9"
1#"
1D
1C
1Y
0;
0Z
1|
1t
1l
1g
b1001 2
1,"
1;"
b1101 (
b1101 .
b1101 :"
b1001 -
1,
#200
0,
#210
0/"
1+"
0x
1u
1-"
b1011 a
1v
1A
0D
b1111 )
b1111 1
b1111 9"
1&"
0Y
0R
1Z
04
0\
0|
0t
0l
0g
1$"
1}
1m
1h
1e
0,"
b1010 2
1."
1;"
b1111 (
b1111 .
b1111 :"
b101 /
b1010 -
1,
#220
0,
#230
1/"
1x
0-"
0+"
b1110 )
b1110 1
b1110 9"
0#"
0v
0A
b1100 a
0u
15
1R
1D
1Y
0S
0Z
1|
1t
1l
1g
b1011 2
1,"
1;"
b1110 (
b1110 .
b1110 :"
b1011 -
1,
#240
0,
#250
1+"
1u
1B
0-"
b1101 a
0v
b1010 )
b1010 1
b1010 9"
0)"
0D
0C
05
0Y
0R
1P
1Z
1;
1S
0Q
1\
0[
0|
0t
0l
0g
0$"
0}
0m
0h
0e
1("
1%"
1w
1o
1i
1f
0,"
0."
b1100 2
10"
1;"
b1010 (
b1010 .
b1010 :"
b110 /
b1100 -
1,
#260
0,
#270
1-"
1v
0+"
b1110 a
0u
0B
b1011 )
b1011 1
b1011 9"
1#"
1D
1C
1Y
0;
0Z
1|
1t
1l
1g
b1101 2
1,"
1;"
b1011 (
b1011 .
b1011 :"
b1101 -
1,
#280
0,
#290
1+"
1u
1-"
b1001 )
b1001 1
b1001 9"
0&"
b1111 a
1v
0D
0Y
1X
0R
1Z
0W
0\
0|
0t
0l
0g
1$"
1}
1m
1h
1e
0,"
b1110 2
1."
1;"
b1001 (
b1001 .
b1001 :"
b111 /
b1110 -
1,
#300
0,
#310
13"
1{
01"
0/"
0y
0=
0x
1O
1@
0-"
0+"
b1000 )
b1000 1
b1000 9"
0#"
0v
b10000 a
0u
0V
15
1R
1D
1Y
0S
0Z
1|
1t
1l
1g
b1111 2
1,"
1;"
b1000 (
b1000 .
b1000 :"
b1111 -
1,
#320
0,
#330
1>
05"
b0 `
0r
1+"
0@
0?
13"
1u
1B
0-"
01"
1I
1{
0v
1A
1V
b10001 a
0y
0D
0C
05
0J
0<
0Y
0R
0X
0P
0O
1Z
1;
1S
14
1W
13
1Q
1M
1\
1[
1_
0|
0t
0l
0g
0$"
0}
0m
0h
0e
0("
0%"
0w
0o
0i
0f
0'"
0~
0n
0j
0b
b11000 )
b11000 1
b11000 9"
1!"
1z
1p
1k
0,"
0."
00"
02"
b10000 2
14"
1;"
b11000 (
b11000 .
b11000 :"
b1000 /
b10000 -
1,
#340
0,
#350
1-"
1v
0+"
b10010 a
0u
0B
b11001 )
b11001 1
b11001 9"
1#"
1D
1C
1Y
0;
0Z
1|
1t
1l
1g
b10001 2
1,"
1;"
b11001 (
b11001 .
b11001 :"
b10001 -
1,
#360
0,
#370
0/"
1+"
0x
1u
1-"
b10011 a
1v
1A
0D
b11011 )
b11011 1
b11011 9"
1&"
0Y
0R
1Z
04
0\
0|
0t
0l
0g
1$"
1}
1m
1h
1e
0,"
b10010 2
1."
1;"
b11011 (
b11011 .
b11011 :"
b1001 /
b10010 -
1,
#380
0,
#390
1/"
1x
0-"
0+"
b11010 )
b11010 1
b11010 9"
0#"
0v
0A
b10100 a
0u
15
1R
1D
1Y
0S
0Z
1|
1t
1l
1g
b10011 2
1,"
1;"
b11010 (
b11010 .
b11010 :"
b10011 -
1,
#400
0,
#410
1+"
1u
1B
0-"
b10101 a
0v
0D
0C
05
b11110 )
b11110 1
b11110 9"
1)"
0Y
0R
1Z
1;
1S
03
1\
0[
0|
0t
0l
0g
0$"
0}
0m
0h
0e
1("
1%"
1w
1o
1i
1f
0,"
0."
b10100 2
10"
1;"
b11110 (
b11110 .
b11110 :"
b1010 /
b10100 -
1,
#420
0,
#430
1-"
1v
0+"
b10110 a
0u
0B
b11111 )
b11111 1
b11111 9"
1#"
1D
1C
1Y
0;
0Z
1|
1t
1l
1g
b10101 2
1,"
1;"
b11111 (
b11111 .
b11111 :"
b10101 -
1,
#440
0,
#450
1+"
1u
1-"
b11101 )
b11101 1
b11101 9"
0&"
b10111 a
1v
0D
0Y
1X
0R
1Z
0W
0\
0|
0t
0l
0g
1$"
1}
1m
1h
1e
0,"
b10110 2
1."
1;"
b11101 (
b11101 .
b11101 :"
b1011 /
b10110 -
1,
#460
0,
#470
11"
1y
0/"
0x
0>
1@
1?
0-"
0+"
b11100 )
b11100 1
b11100 9"
0#"
0v
b11000 a
0u
0V
15
1R
1D
1Y
0S
0Z
1|
1t
1l
1g
b10111 2
1,"
1;"
b11100 (
b11100 .
b11100 :"
b10111 -
1,
#480
0,
#490
05"
b0 `
0r
13"
1I
1{
1+"
0@
0J
0<
1u
1B
0-"
11"
0v
1A
1V
b10100 )
b10100 1
b10100 9"
0*"
1M
b11001 a
1y
0D
0C
05
0N
0Y
0R
0X
1T
0O
1Z
1;
1S
14
1W
0U
1\
1[
0_
0|
0t
0l
0g
0$"
0}
0m
0h
0e
0("
0%"
0w
0o
0i
0f
1'"
1~
1n
1j
1b
0,"
0."
00"
b11000 2
12"
1;"
b10100 (
b10100 .
b10100 :"
b1100 /
b11000 -
1,
#500
0,
#510
1-"
1v
0+"
b11010 a
0u
0B
b10101 )
b10101 1
b10101 9"
1#"
1D
1C
1Y
0;
0Z
1|
1t
1l
1g
b11001 2
1,"
1;"
b10101 (
b10101 .
b10101 :"
b11001 -
1,
#520
0,
#530
0/"
1+"
0x
1u
1-"
b11011 a
1v
1A
0D
b10111 )
b10111 1
b10111 9"
1&"
0Y
0R
1Z
04
0\
0|
0t
0l
0g
1$"
1}
1m
1h
1e
0,"
b11010 2
1."
1;"
b10111 (
b10111 .
b10111 :"
b1101 /
b11010 -
1,
#540
0,
#550
1/"
1x
0-"
0+"
b10110 )
b10110 1
b10110 9"
0#"
0v
0A
b11100 a
0u
15
1R
1D
1Y
0S
0Z
1|
1t
1l
1g
b11011 2
1,"
1;"
b10110 (
b10110 .
b10110 :"
b11011 -
1,
#560
0,
#570
1+"
1u
1B
0-"
b11101 a
0v
b10010 )
b10010 1
b10010 9"
0)"
0D
0C
05
0Y
0R
1P
1Z
1;
1S
0Q
1\
0[
0|
0t
0l
0g
0$"
0}
0m
0h
0e
1("
1%"
1w
1o
1i
1f
0,"
0."
b11100 2
10"
1;"
b10010 (
b10010 .
b10010 :"
b1110 /
b11100 -
1,
#580
0,
#590
1-"
1v
0+"
b11110 a
0u
0B
b10011 )
b10011 1
b10011 9"
1#"
1D
1C
1Y
0;
0Z
1|
1t
1l
1g
b11101 2
1,"
1;"
b10011 (
b10011 .
b10011 :"
b11101 -
1,
#600
0,
#610
1+"
1u
1-"
b10001 )
b10001 1
b10001 9"
0&"
b11111 a
1v
0D
0Y
1X
0R
1Z
0W
0\
0|
0t
0l
0g
1$"
1}
1m
1h
1e
0,"
b11110 2
1."
1;"
b10001 (
b10001 .
b10001 :"
b1111 /
b11110 -
1,
#620
0,
#630
15"
b1 `
1r
03"
0I
0{
1J
1<
01"
0/"
0M
0y
0x
1O
1N
1@
0-"
0+"
b10000 )
b10000 1
b10000 9"
0#"
0v
b0 a
0u
0V
15
1R
1D
1Y
0S
0Z
1|
1t
1l
1g
b11111 2
1,"
1;"
b10000 (
b10000 .
b10000 :"
b11111 -
1,
#640
0,
#650
1>
07"
0s
1+"
0@
0?
03"
1u
1B
0-"
01"
0{
1F
15"
0v
1A
1V
b1 a
0y
1=
b1 `
1r
0D
0C
05
0<
0N
0G
0Y
0R
0X
0P
0O
0T
0L
1Z
1;
1S
14
1W
13
1Q
1:
1M
1U
1K
1\
1[
1_
0^
0|
0t
0l
0g
0$"
0}
0m
0h
0e
0("
0%"
0w
0o
0i
0f
0'"
0~
0n
0j
0b
b0 )
b0 1
b0 9"
0!"
0z
0p
0k
1q
1c
0,"
0."
00"
02"
b0 2
04"
b1 0
16"
1;"
b0 (
b0 .
b0 :"
b0 /
b0 -
1,
#660
0,
#670
1-"
1v
0+"
b10 a
0u
0B
b1 )
b1 1
b1 9"
1#"
1D
1C
1Y
0;
0Z
1|
1t
1l
1g
b1 2
1,"
1;"
b1 (
b1 .
b1 :"
b1 -
1,
#680
0,
#690
0/"
1+"
0x
1u
1-"
b11 a
1v
1A
0D
b11 )
b11 1
b11 9"
1&"
0Y
0R
1Z
04
0\
0|
0t
0l
0g
1$"
1}
1m
1h
1e
0,"
b10 2
1."
1;"
b11 (
b11 .
b11 :"
b1 /
b10 -
1,
#700
0,
#710
1/"
1x
0-"
0+"
b10 )
b10 1
b10 9"
0#"
0v
0A
b100 a
0u
15
1R
1D
1Y
0S
0Z
1|
1t
1l
1g
b11 2
1,"
1;"
b10 (
b10 .
b10 :"
b11 -
1,
#720
0,
#730
1+"
1u
1B
0-"
b101 a
0v
0D
0C
05
b110 )
b110 1
b110 9"
1)"
0Y
0R
1Z
1;
1S
03
1\
0[
0|
0t
0l
0g
0$"
0}
0m
0h
0e
1("
1%"
1w
1o
1i
1f
0,"
0."
b100 2
10"
1;"
b110 (
b110 .
b110 :"
b10 /
b100 -
1,
#740
0,
#750
1-"
1v
0+"
b110 a
0u
0B
b111 )
b111 1
b111 9"
1#"
1D
1C
1Y
0;
0Z
1|
1t
1l
1g
b101 2
1,"
1;"
b111 (
b111 .
b111 :"
b101 -
1,
#760
0,
#770
1+"
1u
1-"
b101 )
b101 1
b101 9"
0&"
b111 a
1v
0D
0Y
1X
0R
1Z
0W
0\
0|
0t
0l
0g
1$"
1}
1m
1h
1e
0,"
b110 2
1."
1;"
b101 (
b101 .
b101 :"
b11 /
b110 -
1,
#780
0,
#790
11"
1y
0/"
0x
0>
1@
1?
0-"
0+"
b100 )
b100 1
b100 9"
0#"
0v
b1000 a
0u
0V
15
1R
1D
1Y
0S
0Z
1|
1t
1l
1g
b111 2
1,"
1;"
b100 (
b100 .
b100 :"
b111 -
1,
#800
0,
#810
03"
1+"
0@
0{
1u
1B
0-"
11"
0v
1A
1V
b1001 a
1y
1=
0D
0C
05
b1100 )
b1100 1
b1100 9"
1*"
0Y
0R
0X
0O
1Z
1;
1S
14
1W
0:
1\
1[
0_
0|
0t
0l
0g
0$"
0}
0m
0h
0e
0("
0%"
0w
0o
0i
0f
1'"
1~
1n
1j
1b
0,"
0."
00"
b1000 2
12"
1;"
b1100 (
b1100 .
b1100 :"
b100 /
b1000 -
1,
#820
0,
#830
1-"
1v
0+"
b1010 a
0u
0B
b1101 )
b1101 1
b1101 9"
1#"
1D
1C
1Y
0;
0Z
1|
1t
1l
1g
b1001 2
1,"
1;"
b1101 (
b1101 .
b1101 :"
b1001 -
1,
#840
0,
#850
0/"
1+"
0x
1u
1-"
b1011 a
1v
1A
0D
b1111 )
b1111 1
b1111 9"
1&"
0Y
0R
1Z
04
0\
0|
0t
0l
0g
1$"
1}
1m
1h
1e
0,"
b1010 2
1."
1;"
b1111 (
b1111 .
b1111 :"
b101 /
b1010 -
1,
#860
0,
#870
1/"
1x
0-"
0+"
b1110 )
b1110 1
b1110 9"
0#"
0v
0A
b1100 a
0u
15
1R
1D
1Y
0S
0Z
1|
1t
1l
1g
b1011 2
1,"
1;"
b1110 (
b1110 .
b1110 :"
b1011 -
1,
#880
0,
#890
1+"
1u
1B
0-"
b1101 a
0v
b1010 )
b1010 1
b1010 9"
0)"
0D
0C
05
0Y
0R
1P
1Z
1;
1S
0Q
1\
0[
0|
0t
0l
0g
0$"
0}
0m
0h
0e
1("
1%"
1w
1o
1i
1f
0,"
0."
b1100 2
10"
1;"
b1010 (
b1010 .
b1010 :"
b110 /
b1100 -
1,
#900
0,
#910
1-"
1v
0+"
b1110 a
0u
0B
b1011 )
b1011 1
b1011 9"
1#"
1D
1C
1Y
0;
0Z
1|
1t
1l
1g
b1101 2
1,"
1;"
b1011 (
b1011 .
b1011 :"
b1101 -
1,
#920
0,
#930
1+"
1u
1-"
b1001 )
b1001 1
b1001 9"
0&"
b1111 a
1v
0D
0Y
1X
0R
1Z
0W
0\
0|
0t
0l
0g
1$"
1}
1m
1h
1e
0,"
b1110 2
1."
1;"
b1001 (
b1001 .
b1001 :"
b111 /
b1110 -
1,
#940
0,
#950
13"
1{
01"
0/"
0y
0=
0x
1O
1@
0-"
0+"
b1000 )
b1000 1
b1000 9"
0#"
0v
b10000 a
0u
0V
15
1R
1D
1Y
0S
0Z
1|
1t
1l
1g
b1111 2
1,"
1;"
b1000 (
b1000 .
b1000 :"
b1111 -
1,
#960
0,
#970
1>
1+"
0@
0?
15"
13"
1u
1B
0-"
01"
b1 `
1r
1{
0v
1A
1V
b10001 a
0y
0D
0C
05
0L
0<
0Y
0R
0X
0P
0O
1Z
1;
1S
14
1W
13
1Q
1M
1\
1[
1_
0|
0t
0l
0g
0$"
0}
0m
0h
0e
0("
0%"
0w
0o
0i
0f
0'"
0~
0n
0j
0b
b11000 )
b11000 1
b11000 9"
1!"
1z
1p
1k
0,"
0."
00"
02"
b10000 2
14"
1;"
b11000 (
b11000 .
b11000 :"
b1000 /
b10000 -
1,
#980
0,
#990
1-"
1v
0+"
b10010 a
0u
0B
b11001 )
b11001 1
b11001 9"
1#"
1D
1C
1Y
0;
0Z
1|
1t
1l
1g
b10001 2
1,"
1;"
b11001 (
b11001 .
b11001 :"
b10001 -
1,
#1000
0,
#1010
0/"
1+"
0x
1u
1-"
b10011 a
1v
1A
0D
b11011 )
b11011 1
b11011 9"
1&"
0Y
0R
1Z
04
0\
0|
0t
0l
0g
1$"
1}
1m
1h
1e
0,"
b10010 2
1."
1;"
b11011 (
b11011 .
b11011 :"
b1001 /
b10010 -
1,
#1020
0,
#1030
1/"
1x
0-"
0+"
b11010 )
b11010 1
b11010 9"
0#"
0v
0A
b10100 a
0u
15
1R
1D
1Y
0S
0Z
1|
1t
1l
1g
b10011 2
1,"
1;"
b11010 (
b11010 .
b11010 :"
b10011 -
1,
#1040
0,
#1050
1+"
1u
1B
0-"
b10101 a
0v
0D
0C
05
b11110 )
b11110 1
b11110 9"
1)"
0Y
0R
1Z
1;
1S
03
1\
0[
0|
0t
0l
0g
0$"
0}
0m
0h
0e
1("
1%"
1w
1o
1i
1f
0,"
0."
b10100 2
10"
1;"
b11110 (
b11110 .
b11110 :"
b1010 /
b10100 -
1,
#1060
0,
#1070
1-"
1v
0+"
b10110 a
0u
0B
b11111 )
b11111 1
b11111 9"
1#"
1D
1C
1Y
0;
0Z
1|
1t
1l
1g
b10101 2
1,"
1;"
b11111 (
b11111 .
b11111 :"
b10101 -
1,
#1080
0,
#1090
1+"
1u
1-"
b11101 )
b11101 1
b11101 9"
0&"
b10111 a
1v
0D
0Y
1X
0R
1Z
0W
0\
0|
0t
0l
0g
1$"
1}
1m
1h
1e
0,"
b10110 2
1."
1;"
b11101 (
b11101 .
b11101 :"
b1011 /
b10110 -
1,
#1100
0,
#1110
11"
1y
0/"
0x
0>
1@
1?
0-"
0+"
b11100 )
b11100 1
b11100 9"
0#"
0v
b11000 a
0u
0V
15
1R
1D
1Y
0S
0Z
1|
1t
1l
1g
b10111 2
1,"
1;"
b11100 (
b11100 .
b11100 :"
b10111 -
1,
#1120
0,
#1130
07"
0s
1F
15"
13"
b1 `
1r
1{
0G
1+"
0@
0L
0<
1u
1B
0-"
1K
11"
0v
1A
1V
b10100 )
b10100 1
b10100 9"
0*"
1M
b11001 a
1y
0D
0C
05
0N
0Y
0R
0X
1T
0O
1Z
1;
1S
14
1W
0U
1\
1[
0_
0|
0t
0l
0g
0$"
0}
0m
0h
0e
0("
0%"
0w
0o
0i
0f
1'"
1~
1n
1j
1b
0,"
0."
00"
b11000 2
12"
1;"
b10100 (
b10100 .
b10100 :"
b1100 /
b11000 -
1,
#1140
0,
#1150
1-"
1v
0+"
b11010 a
0u
0B
b10101 )
b10101 1
b10101 9"
1#"
1D
1C
1Y
0;
0Z
1|
1t
1l
1g
b11001 2
1,"
1;"
b10101 (
b10101 .
b10101 :"
b11001 -
1,
#1160
0,
